…
## What can Tidier.jl do? {#What-can-Tidier.jl-do?}

Before we dive into an introduction of Julia and a look into how Tidier.jl works, it&#39;s useful to show you what Tidier.jl can do. First, we will read in some data, and then we will use Tidier.jl to chain together some data analysis operations.

### First, let&#39;s read in the &quot;Visits to Physician Office&quot; dataset. {#First,-let's-read-in-the-"Visits-to-Physician-Office"-dataset.}

This dataset comes with the Ecdat R package and and is titled OFP. [You can read more about the dataset here](https://rdrr.io/cran/Ecdat/man/OFP.html). To read in datasets packaged with commonly used R packages, we can use the RDatasets Julia package.

```julia
julia> using Tidier, RDatasets
julia> ofp = dataset("Ecdat", "OFP")

4406×19 DataFrame
  Row │ OFP    OFNP   OPP    OPNP   EMR    Hosp   NumChro ⋯
      │ Int32  Int32  Int32  Int32  Int32  Int32  Int32   ⋯
──────┼────────────────────────────────────────────────────
    1 │     5      0      0      0      0      1          ⋯
    2 │     1      0      2      0      2      0
    3 │    13      0      0      0      3      3
    4 │    16      0      5      0      1      1
    5 │     3      0      0      0      0      0          ⋯
    6 │    17      0      0      0      0      0
    7 │     9      0      0      0      0      0
  ⋮   │   ⋮      ⋮      ⋮      ⋮      ⋮      ⋮       ⋮    ⋱
 4401 │    12      4      1      0      0      0
 4402 │    11      0      0      0      0      0          ⋯
 4403 │    12      0      0      0      0      0
 4404 │    10      0     20      0      1      1
 4405 │    16      1      0      0      0      0
 4406 │     0      0      0      0      0      0          ⋯
                           13 columns and 4393 rows omitted
```
…
